\relax 
\providecommand\hyper@newdestlabel[2]{}
\providecommand\babel@aux[2]{}
\@nameuse{bbl@beforestart}
\providecommand\HyperFirstAtBeginDocument{\AtBeginDocument}
\HyperFirstAtBeginDocument{\ifx\hyper@anchor\@undefined
\global\let\oldcontentsline\contentsline
\gdef\contentsline#1#2#3#4{\oldcontentsline{#1}{#2}{#3}}
\global\let\oldnewlabel\newlabel
\gdef\newlabel#1#2{\newlabelxx{#1}#2}
\gdef\newlabelxx#1#2#3#4#5#6{\oldnewlabel{#1}{{#2}{#3}}}
\AtEndDocument{\ifx\hyper@anchor\@undefined
\let\contentsline\oldcontentsline
\let\newlabel\oldnewlabel
\fi}
\fi}
\global\let\hyper@last\relax 
\gdef\HyperFirstAtBeginDocument#1{#1}
\providecommand\HyField@AuxAddToFields[1]{}
\providecommand\HyField@AuxAddToCoFields[2]{}
\providecommand \oddpage@label [2]{}
\babel@aux{english}{}
\citation{power}
\citation{overview}
\citation{overview}
\citation{genetic}
\citation{flowpavement}
\citation{railaggrflow}
\@writefile{toc}{\contentsline {section}{\numberline {1}Introduction}{2}{section.1}\protected@file@percent }
\citation{hshaap}
\citation{merz}
\citation{kleinmanns}
\citation{merz}
\citation{kleinmanns}
\@writefile{toc}{\contentsline {section}{\numberline {2}Problem}{3}{section.2}\protected@file@percent }
\citation{Schrijver}
\citation{LP2}
\@writefile{toc}{\contentsline {section}{\numberline {3}Mixed Integer Linear Programming}{4}{section.3}\protected@file@percent }
\citation{LP2}
\citation{Schrijver}
\citation{LP2}
\newlabel{sduality}{{3.12}{5}{Strong Duality}{theorem.3.12}{}}
\newlabel{coherent_val}{{3.13.1}{5}{}{corollary.3.13.1}{}}
\@writefile{toc}{\contentsline {section}{\numberline {4}Standard Program}{6}{section.4}\protected@file@percent }
\citation{karloff}
\@writefile{toc}{\contentsline {section}{\numberline {5}Benders Decomposition}{8}{section.5}\protected@file@percent }
\@writefile{toc}{\contentsline {subsection}{\numberline {5.1}Benders Applied to the Maintenance Problem}{9}{subsection.5.1}\protected@file@percent }
\citation{scip}
\@writefile{toc}{\contentsline {section}{\numberline {6}Performance Properties}{11}{section.6}\protected@file@percent }
\@writefile{toc}{\contentsline {subsection}{\numberline {6.1}Testing Methodology}{11}{subsection.6.1}\protected@file@percent }
\@writefile{toc}{\contentsline {subsection}{\numberline {6.2}Test Evaluation}{11}{subsection.6.2}\protected@file@percent }
\@writefile{toc}{\contentsline {subsubsection}{\numberline {6.2.1}{\small  \textit  {nodes}} vs. {\small  \textit  {edges}}}{11}{subsubsection.6.2.1}\protected@file@percent }
\@writefile{toc}{\contentsline {subsubsection}{\numberline {6.2.2}{\small  \textit  {steps}} vs. {\small  \textit  {epochs}}}{12}{subsubsection.6.2.2}\protected@file@percent }
\newlabel{elongated_network_complexity}{{6.2.2}{13}{{\small \textit {steps}} vs. {\small \textit {epochs}}}{subsubsection.6.2.2}{}}
\@writefile{toc}{\contentsline {subsubsection}{\numberline {6.2.3}{\small  \textit  {cut networks}}}{14}{subsubsection.6.2.3}\protected@file@percent }
\@writefile{toc}{\contentsline {subsubsection}{\numberline {6.2.4}{\small  \textit  {share of critical}}}{15}{subsubsection.6.2.4}\protected@file@percent }
\@writefile{toc}{\contentsline {subsubsection}{\numberline {6.2.5}{\small  \textit  {decentralization}} vs. {\small  \textit  {connector capacity}}}{17}{subsubsection.6.2.5}\protected@file@percent }
\@writefile{toc}{\contentsline {subsection}{\numberline {6.3}Conclusions}{17}{subsection.6.3}\protected@file@percent }
\@writefile{toc}{\contentsline {section}{\numberline {7}Valid Inequalities}{19}{section.7}\protected@file@percent }
\newlabel{valid_inequalities}{{7}{19}{Valid Inequalities}{section.7}{}}
\@writefile{toc}{\contentsline {subsection}{\numberline {7.1}General Properties}{19}{subsection.7.1}\protected@file@percent }
\newlabel{polydim}{{7.1}{19}{}{theorem.7.1}{}}
\newlabel{validform}{{7.3}{20}{}{theorem.7.3}{}}
\newlabel{cutfacetform}{{7.4}{20}{}{theorem.7.4}{}}
\@writefile{toc}{\contentsline {subsection}{\numberline {7.2}Capture Inequalities}{21}{subsection.7.2}\protected@file@percent }
\newlabel{capture_inequalities_chapter}{{7.2}{21}{Capture Inequalities}{subsection.7.2}{}}
\newlabel{capture_inequalities}{{7.6}{21}{Capture Inequalities}{theorem.7.6}{}}
\newlabel{capture_ineq_valid}{{7.7}{21}{}{theorem.7.7}{}}
\newlabel{logic_monotony}{{7.9}{21}{}{theorem.7.9}{}}
\newlabel{logic_ident_global}{{7.10}{22}{Capture Logic Identity}{theorem.7.10}{}}
\newlabel{capture_logic_ident}{{7.10}{22}{Capture Logic Identity}{theorem.7.10}{}}
\newlabel{logic_ident_local}{{7.10.1}{22}{Weak Correspondence}{corollary.7.10.1}{}}
\newlabel{weak_correspondence}{{7.10.1}{22}{Weak Correspondence}{corollary.7.10.1}{}}
\newlabel{strong_correspondence}{{7.10.2}{22}{Strong Correspondence}{corollary.7.10.2}{}}
\newlabel{bound_optimality}{{7.11}{23}{}{theorem.7.11}{}}
\newlabel{best_in_class}{{7.11}{23}{}{theorem.7.11}{}}
\newlabel{global_importance}{{7.12.1}{23}{Projected Importance}{corollary.7.12.1}{}}
\newlabel{flow_level_decomp}{{7.13}{24}{Flow Level Decomposition}{theorem.7.13}{}}
\newlabel{alt2}{{{alt-2}}{25}{Capture Inequalities}{AMS.19}{}}
\newlabel{partstep2}{{{partstep-2}}{25}{Capture Inequalities}{AMS.21}{}}
\newlabel{cdic}{{{cdic-eq}}{26}{Capture Inequalities}{AMS.27}{}}
\newlabel{pos_logic_bound}{{7.14}{27}{Positive CapLog Bound}{theorem.7.14}{}}
\newlabel{logic_bound_I_def}{{{$\star $}}{27}{Positive CapLog Bound}{AMS.29}{}}
\gdef \LT@i {\LT@entry 
    {1}{104.02525pt}\LT@entry 
    {1}{19.7778pt}\LT@entry 
    {1}{322.50462pt}}
\citation{polymake}
\newlabel{cut_ineq_validity}{{7.15}{30}{}{theorem.7.15}{}}
\@writefile{toc}{\contentsline {section}{\numberline {8}Separation Heuristics for $\poly  \EuScript  {NMP}(\EuScript  N,\mathrm  T, \setbox \z@ \hbox {\mathsurround \z@ $\textstyle A$}\mathaccent "0365{A})$}{31}{section.8}\protected@file@percent }
\newlabel{sepheur}{{8}{31}{Separation Heuristics for $\poly \NMP $}{section.8}{}}
\@writefile{toc}{\contentsline {subsection}{\numberline {8.1}The Stacking Approach}{31}{subsection.8.1}\protected@file@percent }
\@writefile{toc}{\contentsline {subsubsection}{\numberline {8.1.1}Three-Pronged Separation}{31}{subsubsection.8.1.1}\protected@file@percent }
\@writefile{toc}{\contentsline {subsubsection}{\numberline {8.1.2}Capture-Set Separation}{32}{subsubsection.8.1.2}\protected@file@percent }
\newlabel{cap-set_sepa}{{8.1.2}{32}{Capture-Set Separation}{subsubsection.8.1.2}{}}
\@writefile{toc}{\contentsline {subsection}{\numberline {8.2}Stacking Implementation}{32}{subsection.8.2}\protected@file@percent }
\@writefile{toc}{\contentsline {subsubsection}{\numberline {8.2.1}Initial Determination}{32}{subsubsection.8.2.1}\protected@file@percent }
\newlabel{sep_alg}{{8.2.1}{32}{Initial Determination}{subsubsection.8.2.1}{}}
\@writefile{loa}{\contentsline {algorithm}{\numberline {1}{\ignorespaces \textit  {lhs}-Iterative-Approx}}{33}{algorithm.1}\protected@file@percent }
\@writefile{toc}{\contentsline {subsubsection}{\numberline {8.2.2}Dual Bound Propagation}{33}{subsubsection.8.2.2}\protected@file@percent }
\newlabel{dual_bound_propagation}{{8.2.2}{33}{Dual Bound Propagation}{subsubsection.8.2.2}{}}
\@writefile{toc}{\contentsline {subsection}{\numberline {8.3}Defense of Efficacy}{34}{subsection.8.3}\protected@file@percent }
\@writefile{toc}{\contentsline {section}{\numberline {9}SAT on $\prescript  {}{}{\Phi }_{\cdot }^\EuScript  C$}{35}{section.9}\protected@file@percent }
\newlabel{sat_on_phi}{{9}{35}{SAT on $\phig {\cdot }$}{section.9}{}}
\@writefile{toc}{\contentsline {subsection}{\numberline {9.1}Heuristic Employment}{35}{subsection.9.1}\protected@file@percent }
\@writefile{toc}{\contentsline {subsection}{\numberline {9.2}Combating the "Tailing-Off" Effect}{35}{subsection.9.2}\protected@file@percent }
\@writefile{toc}{\contentsline {section}{\numberline {10}Shortcomings and Suggestions for Future Research}{36}{section.10}\protected@file@percent }
\newlabel{future}{{10}{36}{Shortcomings and Suggestions for Future Research}{section.10}{}}
\@writefile{toc}{\contentsline {subsection}{\numberline {10.1}Theory}{36}{subsection.10.1}\protected@file@percent }
\@writefile{toc}{\contentsline {subsection}{\numberline {10.2}Data}{36}{subsection.10.2}\protected@file@percent }
\@writefile{toc}{\contentsline {section}{\numberline {11}Glossary of Notation}{37}{section.11}\protected@file@percent }
\newlabel{glossary}{{11}{37}{Glossary of Notation}{section.11}{}}
\bibcite{overview}{1}
\bibcite{power}{2}
\bibcite{flowpavement}{3}
\bibcite{railaggrflow}{4}
\bibcite{genetic}{5}
\bibcite{hshaap}{6}
\bibcite{merz}{7}
\bibcite{kleinmanns}{8}
\bibcite{scip}{9}
\bibcite{polymake}{10}
\bibcite{karloff}{11}
\bibcite{Schrijver}{12}
\bibcite{LP2}{13}
