nedges,dummy,marked_for_inspection,path,name,structure_graph_tip,structure_graph_shelter_orphans,structure_graph_only_tip_fringes,structure_graph_only_tip_extreme_layer,structure_graph_number_of_nodes,structure_graph_number_of_steps,structure_graph_random_attribute_generator,structure_graph_number_of_edges,structure_graph_fuzzing_distance_from,structure_graph_fuzzing_distance_to,structure_graph_random_attribute_generator,structure_graph_at_least_strongly_connected,structure_graph_at_least_weakly_connected,structure_graph_acyclic,structure_graph_simple,structure_graph_anti_reflexive,cluster_tip,cluster_shelter_orphans,cluster_only_tip_fringes,cluster_only_tip_extreme_layer,cluster_number_of_nodes,cluster_number_of_steps,cluster_random_attribute_generator,cluster_number_of_edges,cluster_fuzzing_distance_from,cluster_fuzzing_distance_to,cluster_random_attribute_generator,cluster_at_least_strongly_connected,cluster_at_least_weakly_connected,cluster_acyclic,cluster_simple,cluster_anti_reflexive,default_edge_attributes,default_node_attributes,structure_graph_edge_tipping_random_attribute_generator,structure_graph_node_tipping_random_attribute_generator,cluster_edge_tipping_random_attribute_generator,cluster_node_tipping_random_attribute_generator,number_of_epochs,share_of_critical,critical_selection_policy,example_number_of_edges,example_number_of_nodes,example_avg_incid_per_node,example_number_of_critical_edges,example_share_of_critical,example_number_of_epochs,example_path_length_lower_bound,maintenance_problem_ip_time_in_sec,maintenance_problem_ip_number_of_bnb_runs,maintenance_problem_ip_number_of_reopt_runs,maintenance_problem_ip_number_of_nodes_explored,maintenance_problem_ip_max_depth,maintenance_problem_ip_dual_bound,maintenance_problem_ip_primal_bound,maintenance_problem_ip_gap,maintenance_problem_ip_number_of_primal_sols,maintenance_problem_benders_time_in_sec,maintenance_problem_benders_number_of_bnb_runs,maintenance_problem_benders_number_of_reopt_runs,maintenance_problem_benders_number_of_nodes_explored,maintenance_problem_benders_max_depth,maintenance_problem_benders_dual_bound,maintenance_problem_benders_primal_bound,maintenance_problem_benders_gap,maintenance_problem_benders_number_of_primal_sols
100,0,0,raster_pos:nedges=100_dummy=0,instance.test_data,0,0,0,0,2,2,random_attribute_generator {  } ,100,1,1,random_attribute_generator { Upper =  { fix Integral 1 100 }  } ,0,0,1,0,1,1,1,1,0,1,1,random_attribute_generator {  } ,0,0,0,random_attribute_generator { Upper =  { fix Integral 1 100 }  } ,0,0,1,1,1,Attributes { Flow = Attribute { max Continuous 0 } Upper = Attribute { fix Continuous 1 } Selected = Attribute { fix Continuous 0 } Edgepotential = Attribute { min Continuous 0 } } ,Attributes { Nodepotential = Attribute { min Continuous 0 } } ,random_attribute_generator { Upper =  { fix Integral 1 100 }  } ,random_attribute_generator {  } ,random_attribute_generator { Upper =  { fix Integral 1 100 }  } ,random_attribute_generator {  } ,3,1,everywhere,100,2,100,100,1,3,1,0.13086,1,0,5.75,4.1,3383.05,3383.05,0,11.15,212.807,1,0,471482,104.85,3383.14,3383.05,2.57779e-05,111.25
110,0,0,raster_pos:nedges=110_dummy=0,instance.test_data,0,0,0,0,2,2,random_attribute_generator {  } ,110,1,1,random_attribute_generator { Upper =  { fix Integral 1 100 }  } ,0,0,1,0,1,1,1,1,0,1,1,random_attribute_generator {  } ,0,0,0,random_attribute_generator { Upper =  { fix Integral 1 100 }  } ,0,0,1,1,1,Attributes { Flow = Attribute { max Continuous 0 } Upper = Attribute { fix Continuous 1 } Selected = Attribute { fix Continuous 0 } Edgepotential = Attribute { min Continuous 0 } } ,Attributes { Nodepotential = Attribute { min Continuous 0 } } ,random_attribute_generator { Upper =  { fix Integral 1 100 }  } ,random_attribute_generator {  } ,random_attribute_generator { Upper =  { fix Integral 1 100 }  } ,random_attribute_generator {  } ,3,1,everywhere,110,2,110,110,1,3,1,0.152423,1,0,10.55,8.65,3725.45,3725.45,0,14.7,323.471,1,0,744960,97.45,3725.57,3725.45,3.25499e-05,121.05
120,0,0,raster_pos:nedges=120_dummy=0,instance.test_data,0,0,0,0,2,2,random_attribute_generator {  } ,120,1,1,random_attribute_generator { Upper =  { fix Integral 1 100 }  } ,0,0,1,0,1,1,1,1,0,1,1,random_attribute_generator {  } ,0,0,0,random_attribute_generator { Upper =  { fix Integral 1 100 }  } ,0,0,1,1,1,Attributes { Flow = Attribute { max Continuous 0 } Upper = Attribute { fix Continuous 1 } Selected = Attribute { fix Continuous 0 } Edgepotential = Attribute { min Continuous 0 } } ,Attributes { Nodepotential = Attribute { min Continuous 0 } } ,random_attribute_generator { Upper =  { fix Integral 1 100 }  } ,random_attribute_generator {  } ,random_attribute_generator { Upper =  { fix Integral 1 100 }  } ,random_attribute_generator {  } ,3,1,everywhere,120,2,120,120,1,3,1,0.169231,1,0,10,6.8,4047.1,4047.1,0,14.15,454.152,1,0,860238,118.45,4047.28,4047.1,4.38624e-05,160.2
130,0,0,raster_pos:nedges=130_dummy=0,instance.test_data,0,0,0,0,2,2,random_attribute_generator {  } ,130,1,1,random_attribute_generator { Upper =  { fix Integral 1 100 }  } ,0,0,1,0,1,1,1,1,0,1,1,random_attribute_generator {  } ,0,0,0,random_attribute_generator { Upper =  { fix Integral 1 100 }  } ,0,0,1,1,1,Attributes { Flow = Attribute { max Continuous 0 } Upper = Attribute { fix Continuous 1 } Selected = Attribute { fix Continuous 0 } Edgepotential = Attribute { min Continuous 0 } } ,Attributes { Nodepotential = Attribute { min Continuous 0 } } ,random_attribute_generator { Upper =  { fix Integral 1 100 }  } ,random_attribute_generator {  } ,random_attribute_generator { Upper =  { fix Integral 1 100 }  } ,random_attribute_generator {  } ,3,1,everywhere,130,2,130,130,1,3,1,0.155664,1,0,3.65,2.65,4362.4,4362.4,0,13.95,503.564,1,0,948584,129.4,4362.58,4362.4,4.28023e-05,199.95
140,0,0,raster_pos:nedges=140_dummy=0,instance.test_data,0,0,0,0,2,2,random_attribute_generator {  } ,140,1,1,random_attribute_generator { Upper =  { fix Integral 1 100 }  } ,0,0,1,0,1,1,1,1,0,1,1,random_attribute_generator {  } ,0,0,0,random_attribute_generator { Upper =  { fix Integral 1 100 }  } ,0,0,1,1,1,Attributes { Flow = Attribute { max Continuous 0 } Upper = Attribute { fix Continuous 1 } Selected = Attribute { fix Continuous 0 } Edgepotential = Attribute { min Continuous 0 } } ,Attributes { Nodepotential = Attribute { min Continuous 0 } } ,random_attribute_generator { Upper =  { fix Integral 1 100 }  } ,random_attribute_generator {  } ,random_attribute_generator { Upper =  { fix Integral 1 100 }  } ,random_attribute_generator {  } ,3,1,everywhere,140,2,140,140,1,3,1,0.198155,1,0,8.4,6.7,4788.15,4788.15,0,15.9,502.271,1,0,891111,135.35,4788.23,4788.15,1.77104e-05,196.55
150,0,0,raster_pos:nedges=150_dummy=0,instance.test_data,0,0,0,0,2,2,random_attribute_generator {  } ,150,1,1,random_attribute_generator { Upper =  { fix Integral 1 100 }  } ,0,0,1,0,1,1,1,1,0,1,1,random_attribute_generator {  } ,0,0,0,random_attribute_generator { Upper =  { fix Integral 1 100 }  } ,0,0,1,1,1,Attributes { Flow = Attribute { max Continuous 0 } Upper = Attribute { fix Continuous 1 } Selected = Attribute { fix Continuous 0 } Edgepotential = Attribute { min Continuous 0 } } ,Attributes { Nodepotential = Attribute { min Continuous 0 } } ,random_attribute_generator { Upper =  { fix Integral 1 100 }  } ,random_attribute_generator {  } ,random_attribute_generator { Upper =  { fix Integral 1 100 }  } ,random_attribute_generator {  } ,3,1,everywhere,150,2,150,150,1,3,1,0.157926,1,0,2.9,1.8,5063.95,5063.95,0,13.9,352.533,1,0,538667,150.65,5063.97,5063.95,3.56894e-06,153.35
160,0,0,raster_pos:nedges=160_dummy=0,instance.test_data,0,0,0,0,2,2,random_attribute_generator {  } ,160,1,1,random_attribute_generator { Upper =  { fix Integral 1 100 }  } ,0,0,1,0,1,1,1,1,0,1,1,random_attribute_generator {  } ,0,0,0,random_attribute_generator { Upper =  { fix Integral 1 100 }  } ,0,0,1,1,1,Attributes { Flow = Attribute { max Continuous 0 } Upper = Attribute { fix Continuous 1 } Selected = Attribute { fix Continuous 0 } Edgepotential = Attribute { min Continuous 0 } } ,Attributes { Nodepotential = Attribute { min Continuous 0 } } ,random_attribute_generator { Upper =  { fix Integral 1 100 }  } ,random_attribute_generator {  } ,random_attribute_generator { Upper =  { fix Integral 1 100 }  } ,random_attribute_generator {  } ,3,1,everywhere,160,2,160,160,1,3,1,0.239813,1,0,6.95,3.6,5315.75,5315.75,0,14.9,151.122,1,0,208650,107.5,5315.76,5315.75,1.24011e-06,79.9
170,0,0,raster_pos:nedges=170_dummy=0,instance.test_data,0,0,0,0,2,2,random_attribute_generator {  } ,170,1,1,random_attribute_generator { Upper =  { fix Integral 1 100 }  } ,0,0,1,0,1,1,1,1,0,1,1,random_attribute_generator {  } ,0,0,0,random_attribute_generator { Upper =  { fix Integral 1 100 }  } ,0,0,1,1,1,Attributes { Flow = Attribute { max Continuous 0 } Upper = Attribute { fix Continuous 1 } Selected = Attribute { fix Continuous 0 } Edgepotential = Attribute { min Continuous 0 } } ,Attributes { Nodepotential = Attribute { min Continuous 0 } } ,random_attribute_generator { Upper =  { fix Integral 1 100 }  } ,random_attribute_generator {  } ,random_attribute_generator { Upper =  { fix Integral 1 100 }  } ,random_attribute_generator {  } ,3,1,everywhere,170,2,170,170,1,3,1,0.221625,1,0,6.55,4.15,5806.25,5806.25,0,13.35,301.966,1,0,364817,139.8,5806.27,5806.25,3.38037e-06,134
180,0,0,raster_pos:nedges=180_dummy=0,instance.test_data,0,0,0,0,2,2,random_attribute_generator {  } ,180,1,1,random_attribute_generator { Upper =  { fix Integral 1 100 }  } ,0,0,1,0,1,1,1,1,0,1,1,random_attribute_generator {  } ,0,0,0,random_attribute_generator { Upper =  { fix Integral 1 100 }  } ,0,0,1,1,1,Attributes { Flow = Attribute { max Continuous 0 } Upper = Attribute { fix Continuous 1 } Selected = Attribute { fix Continuous 0 } Edgepotential = Attribute { min Continuous 0 } } ,Attributes { Nodepotential = Attribute { min Continuous 0 } } ,random_attribute_generator { Upper =  { fix Integral 1 100 }  } ,random_attribute_generator {  } ,random_attribute_generator { Upper =  { fix Integral 1 100 }  } ,random_attribute_generator {  } ,3,1,everywhere,180,2,180,180,1,3,1,0.21175,1,0,6,4.9,6044.95,6044.95,0,13.25,201.836,1,0,196284,115.5,6044.97,6044.95,2.52502e-06,92.1
190,0,0,raster_pos:nedges=190_dummy=0,instance.test_data,0,0,0,0,2,2,random_attribute_generator {  } ,190,1,1,random_attribute_generator { Upper =  { fix Integral 1 100 }  } ,0,0,1,0,1,1,1,1,0,1,1,random_attribute_generator {  } ,0,0,0,random_attribute_generator { Upper =  { fix Integral 1 100 }  } ,0,0,1,1,1,Attributes { Flow = Attribute { max Continuous 0 } Upper = Attribute { fix Continuous 1 } Selected = Attribute { fix Continuous 0 } Edgepotential = Attribute { min Continuous 0 } } ,Attributes { Nodepotential = Attribute { min Continuous 0 } } ,random_attribute_generator { Upper =  { fix Integral 1 100 }  } ,random_attribute_generator {  } ,random_attribute_generator { Upper =  { fix Integral 1 100 }  } ,random_attribute_generator {  } ,3,1,everywhere,190,2,190,190,1,3,1,0.215325,1,0,3.8,2.7,6403.35,6403.35,0,11.55,202.7,1,0,214204,123.3,6403.36,6403.35,2.21058e-06,92.7
200,0,0,raster_pos:nedges=200_dummy=0,instance.test_data,0,0,0,0,2,2,random_attribute_generator {  } ,200,1,1,random_attribute_generator { Upper =  { fix Integral 1 100 }  } ,0,0,1,0,1,1,1,1,0,1,1,random_attribute_generator {  } ,0,0,0,random_attribute_generator { Upper =  { fix Integral 1 100 }  } ,0,0,1,1,1,Attributes { Flow = Attribute { max Continuous 0 } Upper = Attribute { fix Continuous 1 } Selected = Attribute { fix Continuous 0 } Edgepotential = Attribute { min Continuous 0 } } ,Attributes { Nodepotential = Attribute { min Continuous 0 } } ,random_attribute_generator { Upper =  { fix Integral 1 100 }  } ,random_attribute_generator {  } ,random_attribute_generator { Upper =  { fix Integral 1 100 }  } ,random_attribute_generator {  } ,3,1,everywhere,200,2,200,200,1,3,1,0.228327,1,0,7.65,5.65,6822.3,6822.3,0,13.55,453.136,1,0,460530,173.85,6822.35,6822.3,6.83717e-06,183.9
210,0,0,raster_pos:nedges=210_dummy=0,instance.test_data,0,0,0,0,2,2,random_attribute_generator {  } ,210,1,1,random_attribute_generator { Upper =  { fix Integral 1 100 }  } ,0,0,1,0,1,1,1,1,0,1,1,random_attribute_generator {  } ,0,0,0,random_attribute_generator { Upper =  { fix Integral 1 100 }  } ,0,0,1,1,1,Attributes { Flow = Attribute { max Continuous 0 } Upper = Attribute { fix Continuous 1 } Selected = Attribute { fix Continuous 0 } Edgepotential = Attribute { min Continuous 0 } } ,Attributes { Nodepotential = Attribute { min Continuous 0 } } ,random_attribute_generator { Upper =  { fix Integral 1 100 }  } ,random_attribute_generator {  } ,random_attribute_generator { Upper =  { fix Integral 1 100 }  } ,random_attribute_generator {  } ,3,1,everywhere,210,2,210,210,1,3,1,0.275402,1,0,3.7,2.45,7003.9,7003.9,0,13.6,252.104,1,0,251090,140.25,7003.92,7003.9,2.79808e-06,119.75
220,0,0,raster_pos:nedges=220_dummy=0,instance.test_data,0,0,0,0,2,2,random_attribute_generator {  } ,220,1,1,random_attribute_generator { Upper =  { fix Integral 1 100 }  } ,0,0,1,0,1,1,1,1,0,1,1,random_attribute_generator {  } ,0,0,0,random_attribute_generator { Upper =  { fix Integral 1 100 }  } ,0,0,1,1,1,Attributes { Flow = Attribute { max Continuous 0 } Upper = Attribute { fix Continuous 1 } Selected = Attribute { fix Continuous 0 } Edgepotential = Attribute { min Continuous 0 } } ,Attributes { Nodepotential = Attribute { min Continuous 0 } } ,random_attribute_generator { Upper =  { fix Integral 1 100 }  } ,random_attribute_generator {  } ,random_attribute_generator { Upper =  { fix Integral 1 100 }  } ,random_attribute_generator {  } ,3,1,everywhere,220,2,220,220,1,3,1,0.24193,1,0,13.15,8.55,7375.45,7375.45,0,11.9,351.971,1,0,353365,172,7375.48,7375.45,3.43088e-06,130.9
230,0,0,raster_pos:nedges=230_dummy=0,instance.test_data,0,0,0,0,2,2,random_attribute_generator {  } ,230,1,1,random_attribute_generator { Upper =  { fix Integral 1 100 }  } ,0,0,1,0,1,1,1,1,0,1,1,random_attribute_generator {  } ,0,0,0,random_attribute_generator { Upper =  { fix Integral 1 100 }  } ,0,0,1,1,1,Attributes { Flow = Attribute { max Continuous 0 } Upper = Attribute { fix Continuous 1 } Selected = Attribute { fix Continuous 0 } Edgepotential = Attribute { min Continuous 0 } } ,Attributes { Nodepotential = Attribute { min Continuous 0 } } ,random_attribute_generator { Upper =  { fix Integral 1 100 }  } ,random_attribute_generator {  } ,random_attribute_generator { Upper =  { fix Integral 1 100 }  } ,random_attribute_generator {  } ,3,1,everywhere,230,2,230,230,1,3,1,0.244209,1,0,5.4,3.9,7725.4,7725.4,0,12.6,351.357,1,0,349228,168.8,7725.47,7725.4,9.21353e-06,126.05
240,0,0,raster_pos:nedges=240_dummy=0,instance.test_data,0,0,0,0,2,2,random_attribute_generator {  } ,240,1,1,random_attribute_generator { Upper =  { fix Integral 1 100 }  } ,0,0,1,0,1,1,1,1,0,1,1,random_attribute_generator {  } ,0,0,0,random_attribute_generator { Upper =  { fix Integral 1 100 }  } ,0,0,1,1,1,Attributes { Flow = Attribute { max Continuous 0 } Upper = Attribute { fix Continuous 1 } Selected = Attribute { fix Continuous 0 } Edgepotential = Attribute { min Continuous 0 } } ,Attributes { Nodepotential = Attribute { min Continuous 0 } } ,random_attribute_generator { Upper =  { fix Integral 1 100 }  } ,random_attribute_generator {  } ,random_attribute_generator { Upper =  { fix Integral 1 100 }  } ,random_attribute_generator {  } ,3,1,everywhere,240,2,240,240,1,3,1,0.310746,1,0,4.85,3.6,8002.95,8002.95,0,14.45,351.93,1,0,318641,180.05,8003.05,8002.95,1.25053e-05,119.6
250,0,0,raster_pos:nedges=250_dummy=0,instance.test_data,0,0,0,0,2,2,random_attribute_generator {  } ,250,1,1,random_attribute_generator { Upper =  { fix Integral 1 100 }  } ,0,0,1,0,1,1,1,1,0,1,1,random_attribute_generator {  } ,0,0,0,random_attribute_generator { Upper =  { fix Integral 1 100 }  } ,0,0,1,1,1,Attributes { Flow = Attribute { max Continuous 0 } Upper = Attribute { fix Continuous 1 } Selected = Attribute { fix Continuous 0 } Edgepotential = Attribute { min Continuous 0 } } ,Attributes { Nodepotential = Attribute { min Continuous 0 } } ,random_attribute_generator { Upper =  { fix Integral 1 100 }  } ,random_attribute_generator {  } ,random_attribute_generator { Upper =  { fix Integral 1 100 }  } ,random_attribute_generator {  } ,3,1,everywhere,250,2,250,250,1,3,1,0.326735,1,0,4.4,2,8440.95,8440.95,0,12,207.295,1,0,190229,160.9,8440.99,8440.95,4.98556e-06,75.5
