nincidences,dummy,marked_for_inspection,path,name,structure_graph_tip,structure_graph_shelter_orphans,structure_graph_only_tip_fringes,structure_graph_only_tip_extreme_layer,structure_graph_number_of_nodes,structure_graph_number_of_steps,structure_graph_random_attribute_generator,structure_graph_number_of_edges,structure_graph_fuzzing_distance_from,structure_graph_fuzzing_distance_to,structure_graph_random_attribute_generator,structure_graph_at_least_strongly_connected,structure_graph_at_least_weakly_connected,structure_graph_acyclic,structure_graph_simple,structure_graph_anti_reflexive,cluster_tip,cluster_shelter_orphans,cluster_only_tip_fringes,cluster_only_tip_extreme_layer,cluster_number_of_nodes,cluster_number_of_steps,cluster_random_attribute_generator,cluster_number_of_edges,cluster_fuzzing_distance_from,cluster_fuzzing_distance_to,cluster_random_attribute_generator,cluster_at_least_strongly_connected,cluster_at_least_weakly_connected,cluster_acyclic,cluster_simple,cluster_anti_reflexive,default_edge_attributes,default_node_attributes,structure_graph_edge_tipping_random_attribute_generator,structure_graph_node_tipping_random_attribute_generator,cluster_edge_tipping_random_attribute_generator,cluster_node_tipping_random_attribute_generator,number_of_epochs,share_of_critical,critical_selection_policy,example_number_of_edges,example_number_of_nodes,example_avg_incid_per_node,example_number_of_critical_edges,example_share_of_critical,example_number_of_epochs,example_path_length_lower_bound,maintenance_problem_ip_time_in_sec,maintenance_problem_ip_number_of_bnb_runs,maintenance_problem_ip_number_of_reopt_runs,maintenance_problem_ip_number_of_nodes_explored,maintenance_problem_ip_max_depth,maintenance_problem_ip_dual_bound,maintenance_problem_ip_primal_bound,maintenance_problem_ip_gap,maintenance_problem_ip_number_of_primal_sols,maintenance_problem_benders_time_in_sec,maintenance_problem_benders_number_of_bnb_runs,maintenance_problem_benders_number_of_reopt_runs,maintenance_problem_benders_number_of_nodes_explored,maintenance_problem_benders_max_depth,maintenance_problem_benders_dual_bound,maintenance_problem_benders_primal_bound,maintenance_problem_benders_gap,maintenance_problem_benders_number_of_primal_sols
5,0,0,raster_pos:nincidences=5_dummy=0,instance.test_data,0,0,0,0,10,1,random_attribute_generator {  } ,25,0,0,random_attribute_generator { Upper =  { fix Integral 1 100 }  } ,0,0,1,0,1,0,0,0,0,1,1,random_attribute_generator {  } ,0,0,0,random_attribute_generator { Upper =  { fix Integral 1 100 }  } ,0,0,1,0,1,Attributes { Flow = Attribute { max Continuous 0 } Upper = Attribute { fix Continuous 1 } Selected = Attribute { fix Continuous 0 } Edgepotential = Attribute { min Continuous 0 } } ,Attributes { Nodepotential = Attribute { min Continuous 0 } } ,random_attribute_generator { Upper =  { fix Integral 1 100 }  } ,random_attribute_generator {  } ,random_attribute_generator { Upper =  { fix Integral 1 100 }  } ,random_attribute_generator {  } ,3,1,everywhere,25,10,5,25,1,3,2,0.119593,1,0,1,0,50.15,50.15,0,11.65,0.0403177,1,0,3.1,0.95,50.15,50.15,0,3.55
6,0,0,raster_pos:nincidences=6_dummy=0,instance.test_data,0,0,0,0,10,1,random_attribute_generator {  } ,30,0,0,random_attribute_generator { Upper =  { fix Integral 1 100 }  } ,0,0,1,0,1,0,0,0,0,1,1,random_attribute_generator {  } ,0,0,0,random_attribute_generator { Upper =  { fix Integral 1 100 }  } ,0,0,1,0,1,Attributes { Flow = Attribute { max Continuous 0 } Upper = Attribute { fix Continuous 1 } Selected = Attribute { fix Continuous 0 } Edgepotential = Attribute { min Continuous 0 } } ,Attributes { Nodepotential = Attribute { min Continuous 0 } } ,random_attribute_generator { Upper =  { fix Integral 1 100 }  } ,random_attribute_generator {  } ,random_attribute_generator { Upper =  { fix Integral 1 100 }  } ,random_attribute_generator {  } ,3,1,everywhere,30,10,6,30,1,3,1,0.206152,1,0,4.85,1,80.5,80.5,0,9.95,0.0517894,1,0,13.25,3.45,80.5,80.5,0,4.45
7,0,0,raster_pos:nincidences=7_dummy=0,instance.test_data,0,0,0,0,10,1,random_attribute_generator {  } ,35,0,0,random_attribute_generator { Upper =  { fix Integral 1 100 }  } ,0,0,1,0,1,0,0,0,0,1,1,random_attribute_generator {  } ,0,0,0,random_attribute_generator { Upper =  { fix Integral 1 100 }  } ,0,0,1,0,1,Attributes { Flow = Attribute { max Continuous 0 } Upper = Attribute { fix Continuous 1 } Selected = Attribute { fix Continuous 0 } Edgepotential = Attribute { min Continuous 0 } } ,Attributes { Nodepotential = Attribute { min Continuous 0 } } ,random_attribute_generator { Upper =  { fix Integral 1 100 }  } ,random_attribute_generator {  } ,random_attribute_generator { Upper =  { fix Integral 1 100 }  } ,random_attribute_generator {  } ,3,1,everywhere,35,10,7,35,1,3,1,0.1885,1,0,23.25,3.6,132.7,132.7,0,8.45,0.0548915,1,0,16.4,3.85,132.7,132.7,0,5.6
8,0,0,raster_pos:nincidences=8_dummy=0,instance.test_data,0,0,0,0,10,1,random_attribute_generator {  } ,40,0,0,random_attribute_generator { Upper =  { fix Integral 1 100 }  } ,0,0,1,0,1,0,0,0,0,1,1,random_attribute_generator {  } ,0,0,0,random_attribute_generator { Upper =  { fix Integral 1 100 }  } ,0,0,1,0,1,Attributes { Flow = Attribute { max Continuous 0 } Upper = Attribute { fix Continuous 1 } Selected = Attribute { fix Continuous 0 } Edgepotential = Attribute { min Continuous 0 } } ,Attributes { Nodepotential = Attribute { min Continuous 0 } } ,random_attribute_generator { Upper =  { fix Integral 1 100 }  } ,random_attribute_generator {  } ,random_attribute_generator { Upper =  { fix Integral 1 100 }  } ,random_attribute_generator {  } ,3,1,everywhere,40,10,8,40,1,3,1,0.204502,1,0,37.65,4.7,166.55,166.55,0,6.9,0.0523571,1,0,30.05,5.6,166.55,166.55,0,6.1
9,0,0,raster_pos:nincidences=9_dummy=0,instance.test_data,0,0,0,0,10,1,random_attribute_generator {  } ,45,0,0,random_attribute_generator { Upper =  { fix Integral 1 100 }  } ,0,0,1,0,1,0,0,0,0,1,1,random_attribute_generator {  } ,0,0,0,random_attribute_generator { Upper =  { fix Integral 1 100 }  } ,0,0,1,0,1,Attributes { Flow = Attribute { max Continuous 0 } Upper = Attribute { fix Continuous 1 } Selected = Attribute { fix Continuous 0 } Edgepotential = Attribute { min Continuous 0 } } ,Attributes { Nodepotential = Attribute { min Continuous 0 } } ,random_attribute_generator { Upper =  { fix Integral 1 100 }  } ,random_attribute_generator {  } ,random_attribute_generator { Upper =  { fix Integral 1 100 }  } ,random_attribute_generator {  } ,3,1,everywhere,45,10,9,45,1,3,1,0.259876,1,0,102.55,7.3,207.8,207.8,0,9.1,0.0960678,1,0,96.7,7.55,207.8,207.8,0,8.45
10,0,0,raster_pos:nincidences=10_dummy=0,instance.test_data,0,0,0,0,10,1,random_attribute_generator {  } ,50,0,0,random_attribute_generator { Upper =  { fix Integral 1 100 }  } ,0,0,1,0,1,0,0,0,0,1,1,random_attribute_generator {  } ,0,0,0,random_attribute_generator { Upper =  { fix Integral 1 100 }  } ,0,0,1,0,1,Attributes { Flow = Attribute { max Continuous 0 } Upper = Attribute { fix Continuous 1 } Selected = Attribute { fix Continuous 0 } Edgepotential = Attribute { min Continuous 0 } } ,Attributes { Nodepotential = Attribute { min Continuous 0 } } ,random_attribute_generator { Upper =  { fix Integral 1 100 }  } ,random_attribute_generator {  } ,random_attribute_generator { Upper =  { fix Integral 1 100 }  } ,random_attribute_generator {  } ,3,1,everywhere,50,10,10,50,1,3,2,0.310099,1,0,53.65,7.7,208.65,208.65,0,6.15,0.0705637,1,0,61.5,7.3,208.65,208.65,0,7.3
11,0,0,raster_pos:nincidences=11_dummy=0,instance.test_data,0,0,0,0,10,1,random_attribute_generator {  } ,55,0,0,random_attribute_generator { Upper =  { fix Integral 1 100 }  } ,0,0,1,0,1,0,0,0,0,1,1,random_attribute_generator {  } ,0,0,0,random_attribute_generator { Upper =  { fix Integral 1 100 }  } ,0,0,1,0,1,Attributes { Flow = Attribute { max Continuous 0 } Upper = Attribute { fix Continuous 1 } Selected = Attribute { fix Continuous 0 } Edgepotential = Attribute { min Continuous 0 } } ,Attributes { Nodepotential = Attribute { min Continuous 0 } } ,random_attribute_generator { Upper =  { fix Integral 1 100 }  } ,random_attribute_generator {  } ,random_attribute_generator { Upper =  { fix Integral 1 100 }  } ,random_attribute_generator {  } ,3,1,everywhere,55,10,11,55,1,3,1,0.500512,1,0,358.8,12.6,257.65,257.65,0,8.1,0.168481,1,0,216.65,9.85,257.65,257.65,0,9.1
12,0,0,raster_pos:nincidences=12_dummy=0,instance.test_data,0,0,0,0,10,1,random_attribute_generator {  } ,60,0,0,random_attribute_generator { Upper =  { fix Integral 1 100 }  } ,0,0,1,0,1,0,0,0,0,1,1,random_attribute_generator {  } ,0,0,0,random_attribute_generator { Upper =  { fix Integral 1 100 }  } ,0,0,1,0,1,Attributes { Flow = Attribute { max Continuous 0 } Upper = Attribute { fix Continuous 1 } Selected = Attribute { fix Continuous 0 } Edgepotential = Attribute { min Continuous 0 } } ,Attributes { Nodepotential = Attribute { min Continuous 0 } } ,random_attribute_generator { Upper =  { fix Integral 1 100 }  } ,random_attribute_generator {  } ,random_attribute_generator { Upper =  { fix Integral 1 100 }  } ,random_attribute_generator {  } ,3,1,everywhere,60,10,12,60,1,3,1,0.387221,1,0,217.2,13.25,289.55,289.55,0,7.55,0.122965,1,0,154.45,10.65,289.55,289.55,0,8.8
13,0,0,raster_pos:nincidences=13_dummy=0,instance.test_data,0,0,0,0,10,1,random_attribute_generator {  } ,65,0,0,random_attribute_generator { Upper =  { fix Integral 1 100 }  } ,0,0,1,0,1,0,0,0,0,1,1,random_attribute_generator {  } ,0,0,0,random_attribute_generator { Upper =  { fix Integral 1 100 }  } ,0,0,1,0,1,Attributes { Flow = Attribute { max Continuous 0 } Upper = Attribute { fix Continuous 1 } Selected = Attribute { fix Continuous 0 } Edgepotential = Attribute { min Continuous 0 } } ,Attributes { Nodepotential = Attribute { min Continuous 0 } } ,random_attribute_generator { Upper =  { fix Integral 1 100 }  } ,random_attribute_generator {  } ,random_attribute_generator { Upper =  { fix Integral 1 100 }  } ,random_attribute_generator {  } ,3,1,everywhere,65,10,13,65,1,3,1,1.72812,1,0,1539,16.9,327.7,327.7,0,9.2,0.731014,1,0,1064,13.55,327.7,327.7,0,12.9
14,0,0,raster_pos:nincidences=14_dummy=0,instance.test_data,0,0,0,0,10,1,random_attribute_generator {  } ,70,0,0,random_attribute_generator { Upper =  { fix Integral 1 100 }  } ,0,0,1,0,1,0,0,0,0,1,1,random_attribute_generator {  } ,0,0,0,random_attribute_generator { Upper =  { fix Integral 1 100 }  } ,0,0,1,0,1,Attributes { Flow = Attribute { max Continuous 0 } Upper = Attribute { fix Continuous 1 } Selected = Attribute { fix Continuous 0 } Edgepotential = Attribute { min Continuous 0 } } ,Attributes { Nodepotential = Attribute { min Continuous 0 } } ,random_attribute_generator { Upper =  { fix Integral 1 100 }  } ,random_attribute_generator {  } ,random_attribute_generator { Upper =  { fix Integral 1 100 }  } ,random_attribute_generator {  } ,3,1,everywhere,70,10,14,70,1,3,1,6.12978,1,0,6231.9,19.95,393.25,393.25,0,9.55,2.44988,1,0,3567,17,393.25,393.25,0,16.9
15,0,0,raster_pos:nincidences=15_dummy=0,instance.test_data,0,0,0,0,10,1,random_attribute_generator {  } ,75,0,0,random_attribute_generator { Upper =  { fix Integral 1 100 }  } ,0,0,1,0,1,0,0,0,0,1,1,random_attribute_generator {  } ,0,0,0,random_attribute_generator { Upper =  { fix Integral 1 100 }  } ,0,0,1,0,1,Attributes { Flow = Attribute { max Continuous 0 } Upper = Attribute { fix Continuous 1 } Selected = Attribute { fix Continuous 0 } Edgepotential = Attribute { min Continuous 0 } } ,Attributes { Nodepotential = Attribute { min Continuous 0 } } ,random_attribute_generator { Upper =  { fix Integral 1 100 }  } ,random_attribute_generator {  } ,random_attribute_generator { Upper =  { fix Integral 1 100 }  } ,random_attribute_generator {  } ,3,1,everywhere,75,10,15,75,1,3,1,3.20851,1,0,4729.45,19.3,372.1,372.1,0,9.9,0.697123,1,0,1515.95,15.85,372.1,372.1,0,12.8
16,0,0,raster_pos:nincidences=16_dummy=0,instance.test_data,0,0,0,0,10,1,random_attribute_generator {  } ,80,0,0,random_attribute_generator { Upper =  { fix Integral 1 100 }  } ,0,0,1,0,1,0,0,0,0,1,1,random_attribute_generator {  } ,0,0,0,random_attribute_generator { Upper =  { fix Integral 1 100 }  } ,0,0,1,0,1,Attributes { Flow = Attribute { max Continuous 0 } Upper = Attribute { fix Continuous 1 } Selected = Attribute { fix Continuous 0 } Edgepotential = Attribute { min Continuous 0 } } ,Attributes { Nodepotential = Attribute { min Continuous 0 } } ,random_attribute_generator { Upper =  { fix Integral 1 100 }  } ,random_attribute_generator {  } ,random_attribute_generator { Upper =  { fix Integral 1 100 }  } ,random_attribute_generator {  } ,3,1,everywhere,80,10,16,80,1,3,1,3.46622,1,0,4122.25,20.4,408.25,408.25,0,11.5,2.10628,1,0,4005.85,17.15,408.25,408.25,0,18.8
17,0,0,raster_pos:nincidences=17_dummy=0,instance.test_data,0,0,0,0,10,1,random_attribute_generator {  } ,85,0,0,random_attribute_generator { Upper =  { fix Integral 1 100 }  } ,0,0,1,0,1,0,0,0,0,1,1,random_attribute_generator {  } ,0,0,0,random_attribute_generator { Upper =  { fix Integral 1 100 }  } ,0,0,1,0,1,Attributes { Flow = Attribute { max Continuous 0 } Upper = Attribute { fix Continuous 1 } Selected = Attribute { fix Continuous 0 } Edgepotential = Attribute { min Continuous 0 } } ,Attributes { Nodepotential = Attribute { min Continuous 0 } } ,random_attribute_generator { Upper =  { fix Integral 1 100 }  } ,random_attribute_generator {  } ,random_attribute_generator { Upper =  { fix Integral 1 100 }  } ,random_attribute_generator {  } ,3,1,everywhere,85,10,17,85,1,3,1,7.35764,1,0,9361,22.5,442.15,442.15,0,11.85,8.25536,1,0,15113.6,17.5,442.15,442.15,0,25.65
18,0,0,raster_pos:nincidences=18_dummy=0,instance.test_data,0,0,0,0,10,1,random_attribute_generator {  } ,90,0,0,random_attribute_generator { Upper =  { fix Integral 1 100 }  } ,0,0,1,0,1,0,0,0,0,1,1,random_attribute_generator {  } ,0,0,0,random_attribute_generator { Upper =  { fix Integral 1 100 }  } ,0,0,1,0,1,Attributes { Flow = Attribute { max Continuous 0 } Upper = Attribute { fix Continuous 1 } Selected = Attribute { fix Continuous 0 } Edgepotential = Attribute { min Continuous 0 } } ,Attributes { Nodepotential = Attribute { min Continuous 0 } } ,random_attribute_generator { Upper =  { fix Integral 1 100 }  } ,random_attribute_generator {  } ,random_attribute_generator { Upper =  { fix Integral 1 100 }  } ,random_attribute_generator {  } ,3,1,everywhere,90,10,18,90,1,3,2,12.1807,1,0,17067.9,23.3,452.05,452.05,0,17,12.1596,1,0,21009,19.5,452.05,452.05,0,28.8
19,0,0,raster_pos:nincidences=19_dummy=0,instance.test_data,0,0,0,0,10,1,random_attribute_generator {  } ,95,0,0,random_attribute_generator { Upper =  { fix Integral 1 100 }  } ,0,0,1,0,1,0,0,0,0,1,1,random_attribute_generator {  } ,0,0,0,random_attribute_generator { Upper =  { fix Integral 1 100 }  } ,0,0,1,0,1,Attributes { Flow = Attribute { max Continuous 0 } Upper = Attribute { fix Continuous 1 } Selected = Attribute { fix Continuous 0 } Edgepotential = Attribute { min Continuous 0 } } ,Attributes { Nodepotential = Attribute { min Continuous 0 } } ,random_attribute_generator { Upper =  { fix Integral 1 100 }  } ,random_attribute_generator {  } ,random_attribute_generator { Upper =  { fix Integral 1 100 }  } ,random_attribute_generator {  } ,3,1,everywhere,95,10,19,95,1,3,1,78.7721,1,0,121828,27.4,524.775,524.75,4.2517e-05,16.45,65.1723,1,0,99168.9,22.15,524.783,524.75,5.66895e-05,37.15
20,0,0,raster_pos:nincidences=20_dummy=0,instance.test_data,0,0,0,0,10,1,random_attribute_generator {  } ,100,0,0,random_attribute_generator { Upper =  { fix Integral 1 100 }  } ,0,0,1,0,1,0,0,0,0,1,1,random_attribute_generator {  } ,0,0,0,random_attribute_generator { Upper =  { fix Integral 1 100 }  } ,0,0,1,0,1,Attributes { Flow = Attribute { max Continuous 0 } Upper = Attribute { fix Continuous 1 } Selected = Attribute { fix Continuous 0 } Edgepotential = Attribute { min Continuous 0 } } ,Attributes { Nodepotential = Attribute { min Continuous 0 } } ,random_attribute_generator { Upper =  { fix Integral 1 100 }  } ,random_attribute_generator {  } ,random_attribute_generator { Upper =  { fix Integral 1 100 }  } ,random_attribute_generator {  } ,3,1,everywhere,100,10,20,100,1,3,1,94.4717,1,0,157400,27,524.025,524,3.99361e-05,16.9,67.5797,1,0,101116,22.7,524.025,524,3.99361e-05,46.55
21,0,0,raster_pos:nincidences=21_dummy=0,instance.test_data,0,0,0,0,10,1,random_attribute_generator {  } ,105,0,0,random_attribute_generator { Upper =  { fix Integral 1 100 }  } ,0,0,1,0,1,0,0,0,0,1,1,random_attribute_generator {  } ,0,0,0,random_attribute_generator { Upper =  { fix Integral 1 100 }  } ,0,0,1,0,1,Attributes { Flow = Attribute { max Continuous 0 } Upper = Attribute { fix Continuous 1 } Selected = Attribute { fix Continuous 0 } Edgepotential = Attribute { min Continuous 0 } } ,Attributes { Nodepotential = Attribute { min Continuous 0 } } ,random_attribute_generator { Upper =  { fix Integral 1 100 }  } ,random_attribute_generator {  } ,random_attribute_generator { Upper =  { fix Integral 1 100 }  } ,random_attribute_generator {  } ,3,1,everywhere,105,10,21,105,1,3,1,197.181,1,0,333066,31.15,570.15,570.1,7.63812e-05,23.8,151.476,1,0,274400,26.85,570.102,570.1,3.091e-06,77.15
22,0,0,raster_pos:nincidences=22_dummy=0,instance.test_data,0,0,0,0,10,1,random_attribute_generator {  } ,110,0,0,random_attribute_generator { Upper =  { fix Integral 1 100 }  } ,0,0,1,0,1,0,0,0,0,1,1,random_attribute_generator {  } ,0,0,0,random_attribute_generator { Upper =  { fix Integral 1 100 }  } ,0,0,1,0,1,Attributes { Flow = Attribute { max Continuous 0 } Upper = Attribute { fix Continuous 1 } Selected = Attribute { fix Continuous 0 } Edgepotential = Attribute { min Continuous 0 } } ,Attributes { Nodepotential = Attribute { min Continuous 0 } } ,random_attribute_generator { Upper =  { fix Integral 1 100 }  } ,random_attribute_generator {  } ,random_attribute_generator { Upper =  { fix Integral 1 100 }  } ,random_attribute_generator {  } ,3,1,everywhere,110,10,22,110,1,3,1,193.173,1,0,290710,29.5,558.192,558.1,0.00012786,21.85,164.061,1,0,221181,23.7,558.2,558.1,0.000141522,42.6
23,0,0,raster_pos:nincidences=23_dummy=0,instance.test_data,0,0,0,0,10,1,random_attribute_generator {  } ,115,0,0,random_attribute_generator { Upper =  { fix Integral 1 100 }  } ,0,0,1,0,1,0,0,0,0,1,1,random_attribute_generator {  } ,0,0,0,random_attribute_generator { Upper =  { fix Integral 1 100 }  } ,0,0,1,0,1,Attributes { Flow = Attribute { max Continuous 0 } Upper = Attribute { fix Continuous 1 } Selected = Attribute { fix Continuous 0 } Edgepotential = Attribute { min Continuous 0 } } ,Attributes { Nodepotential = Attribute { min Continuous 0 } } ,random_attribute_generator { Upper =  { fix Integral 1 100 }  } ,random_attribute_generator {  } ,random_attribute_generator { Upper =  { fix Integral 1 100 }  } ,random_attribute_generator {  } ,3,1,everywhere,115,10,23,115,1,3,1,412.624,1,0,675710,34.85,650.3,650.1,0.000287339,36.4,337.277,1,0,533042,27.25,650.25,650.1,0.000215588,79.4
24,0,0,raster_pos:nincidences=24_dummy=0,instance.test_data,0,0,0,0,10,1,random_attribute_generator {  } ,120,0,0,random_attribute_generator { Upper =  { fix Integral 1 100 }  } ,0,0,1,0,1,0,0,0,0,1,1,random_attribute_generator {  } ,0,0,0,random_attribute_generator { Upper =  { fix Integral 1 100 }  } ,0,0,1,0,1,Attributes { Flow = Attribute { max Continuous 0 } Upper = Attribute { fix Continuous 1 } Selected = Attribute { fix Continuous 0 } Edgepotential = Attribute { min Continuous 0 } } ,Attributes { Nodepotential = Attribute { min Continuous 0 } } ,random_attribute_generator { Upper =  { fix Integral 1 100 }  } ,random_attribute_generator {  } ,random_attribute_generator { Upper =  { fix Integral 1 100 }  } ,random_attribute_generator {  } ,3,1,everywhere,120,10,24,120,1,3,1,392.2,1,0,602376,37.65,639.517,639.3,0.000323563,45.75,370.892,1,0,573583,30.75,639.492,639.3,0.000282134,82.5
25,0,0,raster_pos:nincidences=25_dummy=0,instance.test_data,0,0,0,0,10,1,random_attribute_generator {  } ,125,0,0,random_attribute_generator { Upper =  { fix Integral 1 100 }  } ,0,0,1,0,1,0,0,0,0,1,1,random_attribute_generator {  } ,0,0,0,random_attribute_generator { Upper =  { fix Integral 1 100 }  } ,0,0,1,0,1,Attributes { Flow = Attribute { max Continuous 0 } Upper = Attribute { fix Continuous 1 } Selected = Attribute { fix Continuous 0 } Edgepotential = Attribute { min Continuous 0 } } ,Attributes { Nodepotential = Attribute { min Continuous 0 } } ,random_attribute_generator { Upper =  { fix Integral 1 100 }  } ,random_attribute_generator {  } ,random_attribute_generator { Upper =  { fix Integral 1 100 }  } ,random_attribute_generator {  } ,3,1,everywhere,125,10,25,125,1,3,1,504.151,1,0,782169,34.95,712.125,711.85,0.000384102,38.8,331.509,1,0,566899,32.2,712.008,711.85,0.00022104,76.4
